1001;eastwoodqeqwe;clint2
1002;johny;depp
1003;tom;cruise
1004;matt;damon
1005;scarlett;johansson
1006;natalie;portman
1007;ryan;gosling
1008;jennifer;lawrence
1009;emma;watson
1010;julia;roberts
1011;nicole;kidman
1012;angelina;jolie
1013;emma;stone
1014;zac;efron
1015;gilbert;depp
1016;josette;johansson
1017;maurice;gosling
1018;alphonse;damon
1019;gisèle;watson
1020;raymonde;johansson
;;
